[
    {
        "name": "Introduction to CoreML",
        "category": "Session",
        "location": "Main Classroom",
        "userDidSignUp": false,
        "userDidCheckIn": false,
        "id": 1001,
        "detailsText": "Machine Learning opens up opportunities for creating new and engaging experiences. CoreML is a new framework chich you can use to easily integrate machine learning models into your app. See how Xcode and CoreML can help you make your app more intelligent with just a few lines of code.",
        "showInCalendar": true,
        "allowNotifications": true,
        "slot": [
            {
                "startDateString": "2019-07-18T14:00:00Z",
                "durationInt": 7200,
                "signupDateString": "2018-07-18T14:00:00Z",
                "signupSlotDurationInt": 10801,
                "capacity": 9,
                "id": 2001
            },
            {
                "startDateString": "2019-08-01T14:00:00Z",
                "durationInt": 7200,
                "signupDateString": "2018-07-18T14:00:00Z",
                "signupSlotDurationInt": 10801,
                "capacity": 20,
                "id": 2011
            },
        ]
        
    },
    {
        "name": "Design Corner",
        "category": "Lab",
        "location": "Collab 01 - 01",
        "userDidSignUp": true,
        "userDidCheckIn": false,
        "id": 1002,
        "detailsText": "Design opens up opportunities for creating new and engaging experiences. Sketch is a new framework chich you can use to easily integrate Color models into your app. See how Adobe and Jony Ive can help you make your app more intelligent with just a few lines of code.",
        "showInCalendar": true,
        "allowNotifications": true,
        "slot": [
            {
                "capacity": 9,
                "startDateString": "2019-07-22T09:30:00Z",
                "durationInt": 3600,
                "signupDateString": "2019-07-21T09:30:00Z",
                "signupSlotDurationInt": 10801,
                "id": 2002
            },
        ]
        
    },
        {
            "name": "WZPN! Inspirational Talk",
            "subtitle": "Steve Jobs, Apple",
            "category": "Workshop",
            "location": "Auditorium",
            "userDidSignUp": false,
            "userDidCheckIn": false,
            "id": 1003,
            "detailsText": "WZPN opens up opportunities for creating new and engaging experiences. Sketch is a new framework chich you can use to easily integrate Color models into your app. See how Adobe and Jony Ive can help you make your app more intelligent with just a few lines of code.",
            "showInCalendar": true,
            "allowNotifications": true,
            "slot": [
                {
                    "capacity": 9,
                    "startDateString": "2019-07-22T13:00:00Z",
                    "durationInt": 3600,
                    "signupDateString": "2019-07-21T09:30:00Z",
                    "signupSlotDurationInt": 10801,
                    "id": 2003
                },
            ]
            
        },
        {
            "name": "Meet And Share",
            "subtitle": "Swift Playgrounds",
            "category": "Meet and Share",
            "location": "Collab 04 - 03",
            "userDidSignUp": false,
            "userDidCheckIn": false,
            "id": 1004,
            "detailsText": "Playgrounds opens up opportunities for creating new and engaging experiences. Sketch is a new framework chich you can use to easily integrate Color models into your app. See how Adobe and Jony Ive can help you make your app more intelligent with just a few lines of code.",
            "showInCalendar": true,
            "allowNotifications": true,
            "slot": [
                {
                    "capacity": 9,
                    "startDateString": "2019-07-24T12:00:00Z",
                    "durationInt": 3600,
                    "signupDateString": "2019-07-21T09:30:00Z",
                    "signupSlotDurationInt": 10801,
                    "id": 2004
                },
            ]
            
        },
        {
            "name": "Reflect on why are you here!",
            "category": "Custom",
            "location": "Boardroom 3",
            "userDidSignUp": false,
            "userDidCheckIn": false,
            "id": 1005,
            "detailsText": "Reflections opens up opportunities for creating new and engaging experiences. Sketch is a new framework chich you can use to easily integrate Color models into your app. See how Adobe and Jony Ive can help you make your app more intelligent with just a few lines of code.",
            "showInCalendar": true,
            "allowNotifications": true,
            "slot": [
                {
                    "capacity": 9,
                    "startDateString": "2019-07-24T07:00:00Z",
                    "durationInt": 32400,
                    "signupDateString": "2019-07-21T09:30:00Z",
                    "signupSlotDurationInt": 10801,
                    "id": 2005
                },
                {
                    "startDateString": "2019-08-01T14:00:00Z",
                    "durationInt": 3600,
                    "signupDateString": "2018-07-18T14:00:00Z",
                    "signupSlotDurationInt": 10801,
                    "capacity": 20,
                    "id": 2051
                },
            ]
            
        },
        {
            "name": "Consult your mentors!",
            "category": "Consultation",
            "location": "Boardroom 2",
            "userDidSignUp": false,
            "userDidCheckIn": false,
            "id": 1006,
            "detailsText": "Reflections opens up opportunities for creating new and engaging experiences. Sketch is a new framework chich you can use to easily integrate Color models into your app. See how Adobe and Jony Ive can help you make your app more intelligent with just a few lines of code.",
            "showInCalendar": true,
            "allowNotifications": true,
            "slot": [
                {
                    "capacity": 9,
                    "startDateString": "2019-07-24T07:00:00Z",
                    "durationInt": 32400,
                    "signupDateString": "2019-07-21T09:30:00Z",
                    "signupSlotDurationInt": 10801,
                    "id": 2005
                },
                {
                    "startDateString": "2019-08-01T14:00:00Z",
                    "durationInt": 3600,
                    "signupDateString": "2018-07-18T14:00:00Z",
                    "signupSlotDurationInt": 10801,
                    "capacity": 20,
                    "id": 2051
                },
            ]
            
        }
    
]
 
 
